[Fri Jun 24 09:39:25 2016][Slave 2]:Loading primes/primes1.txt...
[Fri Jun 24 09:39:25 2016][Slave 2]:Loading primes/primes2.txt...
[Fri Jun 24 09:39:26 2016][Slave 2]:Loading primes/primes3.txt...
[Fri Jun 24 09:39:27 2016][Slave 2]:Loading primes/primes4.txt...
[Fri Jun 24 09:39:27 2016][Slave 2]:Loading primes/primes5.txt...
[Fri Jun 24 09:39:28 2016][Slave 2]:Loading primes/primes6.txt...
[Fri Jun 24 09:39:29 2016][Slave 2]:First primes loaded correctly
[Fri Jun 24 09:39:29 2016][Slave 2]:Set algorithm id: 7 [SoE + preshooting]
[Fri Jun 24 09:39:29 2016][Slave 2]:Search only twins: no
[Fri Jun 24 09:39:29 2016][Slave 2]:Compressed preshooting: yes
[Fri Jun 24 09:39:29 2016][Slave 2]:Use preshooting: yes
[Fri Jun 24 09:39:29 2016][Slave 2]:Preshooting...
[Fri Jun 24 09:39:32 2016][Slave 2]:Preshooting executed correctly. Time: 3845 ms
[Fri Jun 24 09:39:32 2016][Slave 2]:Process 2 of 8 is on rpi3-fab(PID 15974)
[Fri Jun 24 09:39:39 2016][Slave 2]:Received offset 446185740. Start find primes!
[Fri Jun 24 09:39:39 2016][Slave 2]:Set limit: 669278606
[Fri Jun 24 09:39:39 2016][Slave 2]:Set offset: 446185738
[Fri Jun 24 09:39:39 2016][Slave 2]:
[Fri Jun 24 09:39:39 2016][Slave 2]:GALLERY 2
[Fri Jun 24 09:39:39 2016][Slave 2]:Search primes starting at 446185738
[Fri Jun 24 09:39:52 2016][Slave 2]:Primes found: 0 (Limit 100000000)
[Fri Jun 24 09:39:52 2016][Slave 2]:Twin primes found: 0 (Limit 100000000)
[Fri Jun 24 09:39:52 2016][Slave 2]:Brun's constant: 0 (Limit 100000000)
[Fri Jun 24 09:39:52 2016][Slave 2]:Primes found: 1 (Limit 200000000)
[Fri Jun 24 09:39:52 2016][Slave 2]:Twin primes found: 0 (Limit 200000000)
[Fri Jun 24 09:39:52 2016][Slave 2]:Brun's constant: 0 (Limit 200000000)
[Fri Jun 24 09:39:52 2016][Slave 2]:Primes found: 2 (Limit 300000000)
[Fri Jun 24 09:39:52 2016][Slave 2]:Twin primes found: 0 (Limit 300000000)
[Fri Jun 24 09:39:52 2016][Slave 2]:Brun's constant: 0 (Limit 300000000)
[Fri Jun 24 09:39:52 2016][Slave 2]:Primes found: 3 (Limit 400000000)
[Fri Jun 24 09:39:52 2016][Slave 2]:Twin primes found: 0 (Limit 400000000)
[Fri Jun 24 09:39:52 2016][Slave 2]:Brun's constant: 0 (Limit 400000000)
[Fri Jun 24 09:39:52 2016][Slave 2]:Primes found: 2694419 (Limit 500000000)
[Fri Jun 24 09:39:52 2016][Slave 2]:Twin primes found: 177682 (Limit 500000000)
[Fri Jun 24 09:39:52 2016][Slave 2]:Brun's constant: 0.0007520687873662912 (Limit 500000000)
[Fri Jun 24 09:39:53 2016][Slave 2]:Primes found: 7663255 (Limit 600000000)
[Fri Jun 24 09:39:53 2016][Slave 2]:Twin primes found: 503813 (Limit 600000000)
[Fri Jun 24 09:39:53 2016][Slave 2]:Brun's constant: 0.00194157360088335 (Limit 600000000)
[Fri Jun 24 09:39:53 2016][Slave 2]:Gallery Search time: 14432 ms (Offset 446185738 - Limit 669278608)
[Fri Jun 24 09:39:53 2016][Slave 2]:Gallery Primes found: 11081426 (Offset 446185738 - Limit 669278608)
[Fri Jun 24 09:39:53 2016][Slave 2]:Gallery Twin primes found: 726461 (Offset 446185738 - Limit 669278608)
[Fri Jun 24 09:39:53 2016][Slave 2]:Gallery Brun's constant: 0.00264400856483424 (Offset 446185738 - Limit 669278608)

[Fri Jun 24 09:39:53 2016][Slave 2]:Received offset 1784742960. Start find primes!
[Fri Jun 24 09:39:53 2016][Slave 2]:Set limit: 2007835826
[Fri Jun 24 09:39:53 2016][Slave 2]:Set offset: 1784742958
[Fri Jun 24 09:39:53 2016][Slave 2]:
[Fri Jun 24 09:39:53 2016][Slave 2]:GALLERY 8
[Fri Jun 24 09:39:53 2016][Slave 2]:Search primes starting at 1784742958
[Fri Jun 24 09:40:07 2016][Slave 2]:Primes found: 11081426 (Limit 700000000)
[Fri Jun 24 09:40:07 2016][Slave 2]:Twin primes found: 726461 (Limit 700000000)
[Fri Jun 24 09:40:07 2016][Slave 2]:Brun's constant: 0.00264400856483424 (Limit 700000000)
[Fri Jun 24 09:40:07 2016][Slave 2]:Primes found: 11081427 (Limit 800000000)
[Fri Jun 24 09:40:07 2016][Slave 2]:Twin primes found: 726461 (Limit 800000000)
[Fri Jun 24 09:40:07 2016][Slave 2]:Brun's constant: 0.00264400856483424 (Limit 800000000)
[Fri Jun 24 09:40:07 2016][Slave 2]:Primes found: 11081428 (Limit 900000000)
[Fri Jun 24 09:40:07 2016][Slave 2]:Twin primes found: 726461 (Limit 900000000)
[Fri Jun 24 09:40:07 2016][Slave 2]:Brun's constant: 0.00264400856483424 (Limit 900000000)
[Fri Jun 24 09:40:07 2016][Slave 2]:Primes found: 11081429 (Limit 1000000000)
[Fri Jun 24 09:40:07 2016][Slave 2]:Twin primes found: 726461 (Limit 1000000000)
[Fri Jun 24 09:40:07 2016][Slave 2]:Brun's constant: 0.00264400856483424 (Limit 1000000000)
[Fri Jun 24 09:40:07 2016][Slave 2]:Primes found: 11081430 (Limit 1100000000)
[Fri Jun 24 09:40:07 2016][Slave 2]:Twin primes found: 726461 (Limit 1100000000)
[Fri Jun 24 09:40:07 2016][Slave 2]:Brun's constant: 0.00264400856483424 (Limit 1100000000)
[Fri Jun 24 09:40:07 2016][Slave 2]:Primes found: 11081431 (Limit 1200000000)
[Fri Jun 24 09:40:07 2016][Slave 2]:Twin primes found: 726461 (Limit 1200000000)
[Fri Jun 24 09:40:07 2016][Slave 2]:Brun's constant: 0.00264400856483424 (Limit 1200000000)
[Fri Jun 24 09:40:07 2016][Slave 2]:Primes found: 11081432 (Limit 1300000000)
[Fri Jun 24 09:40:07 2016][Slave 2]:Twin primes found: 726461 (Limit 1300000000)
[Fri Jun 24 09:40:07 2016][Slave 2]:Brun's constant: 0.00264400856483424 (Limit 1300000000)
[Fri Jun 24 09:40:07 2016][Slave 2]:Primes found: 11081433 (Limit 1400000000)
[Fri Jun 24 09:40:07 2016][Slave 2]:Twin primes found: 726461 (Limit 1400000000)
[Fri Jun 24 09:40:07 2016][Slave 2]:Brun's constant: 0.00264400856483424 (Limit 1400000000)
[Fri Jun 24 09:40:07 2016][Slave 2]:Primes found: 11081434 (Limit 1500000000)
[Fri Jun 24 09:40:07 2016][Slave 2]:Twin primes found: 726461 (Limit 1500000000)
[Fri Jun 24 09:40:07 2016][Slave 2]:Brun's constant: 0.00264400856483424 (Limit 1500000000)
[Fri Jun 24 09:40:07 2016][Slave 2]:Primes found: 11081435 (Limit 1600000000)
[Fri Jun 24 09:40:07 2016][Slave 2]:Twin primes found: 726461 (Limit 1600000000)
[Fri Jun 24 09:40:07 2016][Slave 2]:Brun's constant: 0.00264400856483424 (Limit 1600000000)
[Fri Jun 24 09:40:07 2016][Slave 2]:Primes found: 11081436 (Limit 1700000000)
[Fri Jun 24 09:40:07 2016][Slave 2]:Twin primes found: 726461 (Limit 1700000000)
[Fri Jun 24 09:40:07 2016][Slave 2]:Brun's constant: 0.00264400856483424 (Limit 1700000000)
[Fri Jun 24 09:40:07 2016][Slave 2]:Primes found: 11798101 (Limit 1800000000)
[Fri Jun 24 09:40:07 2016][Slave 2]:Twin primes found: 770938 (Limit 1800000000)
[Fri Jun 24 09:40:07 2016][Slave 2]:Brun's constant: 0.002693637883447777 (Limit 1800000000)
[Fri Jun 24 09:40:08 2016][Slave 2]:Primes found: 16483607 (Limit 1900000000)
[Fri Jun 24 09:40:08 2016][Slave 2]:Twin primes found: 1061966 (Limit 1900000000)
[Fri Jun 24 09:40:08 2016][Slave 2]:Brun's constant: 0.003008350974199235 (Limit 1900000000)
[Fri Jun 24 09:40:09 2016][Slave 2]:Primes found: 21157966 (Limit 2000000000)
[Fri Jun 24 09:40:09 2016][Slave 2]:Twin primes found: 1350394 (Limit 2000000000)
[Fri Jun 24 09:40:09 2016][Slave 2]:Brun's constant: 0.003304247474958523 (Limit 2000000000)
[Fri Jun 24 09:40:09 2016][Slave 2]:Gallery Search time: 15188 ms (Offset 1784742958 - Limit 2007835828)
[Fri Jun 24 09:40:09 2016][Slave 2]:Gallery Primes found: 10443182 (Offset 1784742958 - Limit 2007835828)
[Fri Jun 24 09:40:09 2016][Slave 2]:Gallery Twin primes found: 646727 (Offset 1784742958 - Limit 2007835828)
[Fri Jun 24 09:40:09 2016][Slave 2]:Gallery Brun's constant: 0.0006829883934936355 (Offset 1784742958 - Limit 2007835828)

[Fri Jun 24 09:40:18 2016][Slave 2]:Number of gallery received: 2. Runtime: 36.23791122436523 s.
[Fri Jun 24 09:40:18 2016][Slave 2]:Computation terminated!
[Fri Jun 24 09:40:18 2016][Slave 2]:Final Brun's constant value: 0
